<svg width="76" height="76" viewBox="0 0 76 76" fill="none" xmlns="http://www.w3.org/2000/svg">
<circle cx="38.2969" cy="37.5303" r="35.5007" fill="white" stroke="url(#paint0_linear)" stroke-width="4.05903"/>
<path d="M53.9766 31.5707C51.4874 24.5001 44.8271 19.7527 37.3259 19.7527C33.8949 19.7527 30.5311 20.7628 27.6383 22.6483C22.7945 25.7459 20.1035 30.2576 19.5653 36.1161C19.2625 39.5841 20.0025 43.0857 21.6844 46.1159V46.1496C22.0208 46.7557 22.189 47.4627 22.1217 48.1361V48.1698C22.0208 49.0788 21.8863 49.9879 21.7517 50.8297C21.6844 51.2674 21.6172 51.6714 21.5835 52.1091L21.5162 52.6478C21.4826 52.9172 21.449 53.1865 21.4153 53.4559C23.1645 53.2202 24.8464 52.9845 26.5619 52.7488C26.6964 52.7152 26.8646 52.7152 26.9992 52.7152C27.6047 52.7152 28.2101 52.8498 28.7483 53.1529C31.3384 54.567 34.2313 55.3077 37.1914 55.3077C38.5032 55.3077 39.8151 55.173 41.127 54.87C46.1054 53.7589 50.3773 50.594 52.8665 46.1159C55.3221 41.6716 55.7257 36.3854 53.9766 31.5707ZM31.3721 37.5639C31.3384 38.8433 30.2957 39.8871 29.0174 39.8534C27.7392 39.8197 26.6964 38.776 26.7301 37.4965C26.7637 36.2171 27.8065 35.1733 29.0847 35.207C30.3966 35.2407 31.4057 36.2844 31.3721 37.5639ZM37.2587 39.8534C35.9804 39.8534 34.9377 38.8097 34.9377 37.5302C34.9377 36.2508 35.9804 35.207 37.2587 35.207C38.5369 35.207 39.5797 36.2508 39.5797 37.5302C39.5797 38.8097 38.5369 39.8534 37.2587 39.8534ZM45.4662 39.8534C44.188 39.8534 43.1452 38.8097 43.1452 37.5302C43.1452 36.2508 44.188 35.207 45.4662 35.207C46.7445 35.207 47.7872 36.2508 47.7872 37.5302C47.7872 38.8433 46.7445 39.8534 45.4662 39.8534Z" fill="#D76271"/>
<defs>
<linearGradient id="paint0_linear" x1="3.31496" y1="-20.7239" x2="83.4808" y2="-17.6186" gradientUnits="userSpaceOnUse">
<stop stop-color="#A8842F"/>
<stop offset="0.494792" stop-color="#E5CE8B"/>
<stop offset="1" stop-color="#AC8936"/>
</linearGradient>
</defs>
</svg>
