<svg width="53" height="53" viewBox="0 0 53 53" fill="none" xmlns="http://www.w3.org/2000/svg">
<circle cx="26.3076" cy="26.044" r="26.044" fill="#FF7E2E"/>
<path d="M25.5833 31.1081C23.5576 30.9634 21.8214 30.3846 20.2298 29.2271C20.0851 29.0824 19.7957 28.9377 19.651 28.793C18.9276 28.2143 18.9276 27.3462 19.5064 26.6227C19.9404 26.044 20.6639 25.7546 21.3873 26.1886C21.532 26.1886 21.6767 26.3333 21.8214 26.478C24.7152 28.5037 28.6217 28.5037 31.5155 26.6227C31.9496 26.3333 32.239 26.1886 32.5283 26.044C33.2518 25.8993 33.8305 26.1886 34.2646 26.7674C34.6987 27.4908 34.6987 28.0696 34.1199 28.6484C33.2518 29.5165 32.3837 30.0952 31.3708 30.5293C30.358 30.9634 29.2005 31.1081 28.1877 31.2528C28.3324 31.3974 28.4771 31.5421 28.4771 31.6868C29.9239 33.1337 31.5155 34.7253 32.9624 36.1722C33.3965 36.7509 33.5412 37.3297 33.2518 37.9084C32.9624 38.4872 32.239 38.9213 31.6602 38.9213C31.2261 38.9213 30.9368 38.6319 30.6474 38.3425C29.4899 37.185 28.3324 36.1722 27.3196 35.0147C27.0302 34.7253 26.8855 34.7253 26.5961 35.0147C25.4386 36.1722 24.2811 37.3297 23.1236 38.4872C22.5448 39.0659 21.9661 39.0659 21.3873 38.7766C20.8086 38.4872 20.3745 37.7637 20.3745 37.185C20.3745 36.7509 20.6639 36.4615 20.9532 36.0275C22.4001 34.5806 23.847 33.1337 25.2939 31.6868C25.2939 31.3974 25.4386 31.3974 25.5833 31.1081Z" fill="white"/>
<path d="M26.7408 26.044C23.1236 26.044 20.2298 23.1502 20.2298 19.533C20.3745 15.9157 23.2683 13.022 26.8855 13.022C30.5027 13.022 33.3965 15.9157 33.3965 19.6777C33.2518 23.1502 30.358 26.044 26.7408 26.044ZM29.9239 19.533C29.9239 17.7967 28.4771 16.3498 26.7408 16.3498C25.0045 16.3498 23.5576 17.7967 23.5576 19.533C23.5576 21.2692 25.0045 22.7161 26.7408 22.7161C28.6217 22.7161 30.0686 21.2692 29.9239 19.533Z" fill="white"/>
</svg>
