<svg width="53" height="53" viewBox="0 0 53 53" fill="none" xmlns="http://www.w3.org/2000/svg">
<circle cx="26.5" cy="26.5" r="26.5" fill="#DB6173"/>
<path d="M41.6375 17.1188C40.7688 15.575 39.825 15.2937 37.9125 15.1813C35.9937 15.0563 31.175 15 27.0063 15C22.825 15 18 15.0563 16.0875 15.1813C14.175 15.2937 13.2313 15.575 12.3563 17.1188C11.4625 18.6625 11 21.3187 11 25.9937C11 26 11 26 11 26C11 26.0063 11 26.0063 11 26.0063V26.0125C11 30.6687 11.4625 33.3438 12.3563 34.8687C13.2313 36.4125 14.175 36.6938 16.0875 36.825C18.0063 36.9375 22.825 37 27.0063 37C31.1813 37 36 36.9313 37.9188 36.825C39.8375 36.6938 40.7812 36.4125 41.6437 34.8687C42.5437 33.3438 43 30.6687 43 26.0125C43 26.0125 43 26.0063 43 26V25.9937C43 21.3187 42.5438 18.6625 41.6375 17.1188ZM23 32V20L33 26L23 32Z" fill="white"/>
</svg>
