<svg width="142" height="141" viewBox="0 0 142 141" fill="none" xmlns="http://www.w3.org/2000/svg">
<path d="M139.988 70.4375C139.988 108.714 108.959 139.743 70.6822 139.743C32.4057 139.743 1.37648 108.714 1.37648 70.4375C1.37648 32.161 32.4057 1.13173 70.6822 1.13173C108.959 1.13173 139.988 32.161 139.988 70.4375Z" fill="white" stroke="url(#paint0_linear)" stroke-width="2.11429"/>
<g clip-path="url(#clip0)">
<path d="M46.6588 77.6747C46.6588 80.9918 49.3728 83.7058 52.6899 83.7058H80.5335C80.8351 83.3037 81.1366 82.9017 81.5387 82.4996C82.8454 80.9918 83.8506 79.283 84.9563 77.5742H53.8961C53.5946 77.5742 53.293 77.2726 53.293 76.9711V76.6695L56.007 71.5431H78.4226C80.8351 71.5431 82.6444 70.3369 83.5491 68.5275L94.4051 48.8259C95.2092 48.0218 95.0082 47.8207 95.0082 46.715C95.1087 45.4083 94.1035 44.3026 92.7968 44.3026H47.2619L44.4474 38.2715H37.4111C35.8028 38.2715 34.4961 39.5782 34.4961 41.1865V41.3876C34.4961 42.9958 35.8028 44.3026 37.4111 44.3026H40.5272L51.3832 67.3213L47.1614 74.5586C46.9604 75.5638 46.6588 76.77 46.6588 77.6747Z" fill="#A78524"/>
<path d="M53.6951 86.8219C49.5739 86.1182 45.9552 89.7369 46.6588 93.8582C47.0609 96.3711 49.0713 98.3815 51.5842 98.7836C55.7055 99.4872 59.3241 95.8685 58.6205 91.7473C58.2184 89.2343 56.2081 87.2239 53.6951 86.8219Z" fill="#A78524"/>
<path d="M90.0829 76.6696C81.1367 76.6696 73.8994 83.9069 73.8994 92.853C73.8994 101.799 81.1367 109.036 90.0829 109.036C99.029 109.036 106.166 101.799 106.266 92.853C106.166 83.9069 98.9285 76.6696 90.0829 76.6696ZM100.034 88.2292L85.9616 99.4872L80.4331 93.8582C79.9305 93.3556 79.9305 92.4509 80.4331 91.9484L80.5336 91.8478C81.0362 91.3452 81.9409 91.3452 82.4435 91.8478L86.2632 95.6675L98.3254 86.0178C98.9285 85.5152 99.7326 85.6157 100.235 86.2188L100.336 86.3193C100.738 86.9224 100.637 87.7266 100.034 88.2292Z" fill="#D76271"/>
</g>
<defs>
<linearGradient id="paint0_linear" x1="5.09707" y1="-38.7791" x2="155.394" y2="-32.9573" gradientUnits="userSpaceOnUse">
<stop stop-color="#A8842F"/>
<stop offset="0.494792" stop-color="#E5CE8B"/>
<stop offset="1" stop-color="#AC8936"/>
</linearGradient>
<clipPath id="clip0">
<rect width="71.6696" height="70.6644" fill="white" transform="translate(34.4961 38.2715)"/>
</clipPath>
</defs>
</svg>
